﻿[
  {
    "outputFile": "Assets/Styles/custom/custom.css",
    "inputFile": "Assets/Styles/custom/custom.less"
  },
  {
    "outputFile": "Assets/Styles/custom/Template/template.css",
    "inputFile": "Assets/Styles/custom/Template/template.less"
  },
  {
    "outputFile": "Assets/Styles/custom/Template/template1.css",
    "inputFile": "Assets/Styles/custom/Template/template1.less"
  },
  {
    "outputFile": "Assets/Styles/custom/Template/template2.css",
    "inputFile": "Assets/Styles/custom/Template/template2.less"
  },
  {
    "outputFile": "Assets/Styles/custom/itok.css",
    "inputFile": "Assets/Styles/custom/itok.less"
  }
]