﻿[
  {
    "outputFile": "Assets/Styles/custom/custom.css",
    "inputFile": "Assets/Styles/custom/custom.less"
  },
  {
    "outputFile": "Assets/Styles/custom/User/user.css",
    "inputFile": "Assets/Styles/custom/User/user.less"
  },

  {
    "outputFile": "Assets/Styles/custom/custom.css",
    "inputFile": "Assets/Styles/custom/custom.less"
  },
  {
    "outputFile": "Assets/Styles/custom/Template/template.css",
    "inputFile": "Assets/Styles/custom/Template/template.less"
  },
  {
    "outputFile": "Assets/Styles/custom/Template/template1.css",
    "inputFile": "Assets/Styles/custom/Template/template1.less"
  },
  {
    "outputFile": "Assets/Styles/custom/Template/template2.css",
    "inputFile": "Assets/Styles/custom/Template/template2.less"
  },
  {
    "outputFile": "Assets/Styles/custom/Template/template6.css",
    "inputFile": "Assets/Styles/custom/Template/template6.less"
  },
  {
    "outputFile": "Assets/Styles/custom/Template/template3.css",
    "inputFile": "Assets/Styles/custom/Template/template3.less"
  },
  {
    "outputFile": "Assets/Styles/custom/Template/template4.css",
    "inputFile": "Assets/Styles/custom/Template/template4.less"
  },
  {
    "outputFile": "Assets/Styles/custom/Template/template5.css",
    "inputFile": "Assets/Styles/custom/Template/template5.less"
  }
]